\relax 
\providecommand\babel@aux[2]{}
\@nameuse{bbl@beforestart}
\providecommand\HyperFirstAtBeginDocument{\AtBeginDocument}
\HyperFirstAtBeginDocument{\ifx\hyper@anchor\@undefined
\global\let\oldcontentsline\contentsline
\gdef\contentsline#1#2#3#4{\oldcontentsline{#1}{#2}{#3}}
\global\let\oldnewlabel\newlabel
\gdef\newlabel#1#2{\newlabelxx{#1}#2}
\gdef\newlabelxx#1#2#3#4#5#6{\oldnewlabel{#1}{{#2}{#3}}}
\AtEndDocument{\ifx\hyper@anchor\@undefined
\let\contentsline\oldcontentsline
\let\newlabel\oldnewlabel
\fi}
\fi}
\global\let\hyper@last\relax 
\gdef\HyperFirstAtBeginDocument#1{#1}
\providecommand\HyField@AuxAddToFields[1]{}
\providecommand\HyField@AuxAddToCoFields[2]{}
\babel@aux{english}{}
\@writefile{toc}{\contentsline {section}{Educaci\'on}{1}{section*.1}\protected@file@percent }
\@writefile{toc}{\contentsline {section}{Maestr\'ia}{1}{section*.2}\protected@file@percent }
\@writefile{toc}{\contentsline {subsection}{Tesis}{1}{section*.3}\protected@file@percent }
\@writefile{toc}{\contentsline {subsection}{Materias}{1}{section*.4}\protected@file@percent }
\@writefile{toc}{\contentsline {section}{Licenciatura}{1}{section*.5}\protected@file@percent }
\@writefile{toc}{\contentsline {subsection}{Tesis}{1}{section*.6}\protected@file@percent }
\@writefile{toc}{\contentsline {section}{Experiencia}{2}{section*.7}\protected@file@percent }
\@writefile{toc}{\contentsline {subsection}{Trabajos que hice durante mi maestría}{2}{section*.8}\protected@file@percent }
\@writefile{toc}{\contentsline {section}{Idiomas}{2}{section*.9}\protected@file@percent }
\@writefile{toc}{\contentsline {section}{Lenguajes de Programación y herramientas computacionales}{2}{section*.10}\protected@file@percent }
\@writefile{toc}{\contentsline {section}{Publicaciones}{3}{section*.11}\protected@file@percent }
\@writefile{toc}{\contentsline {section}{Congresos Nacionales e Internacionales}{3}{section*.12}\protected@file@percent }
\@writefile{toc}{\contentsline {subsection}{2021}{3}{section*.13}\protected@file@percent }
\@writefile{toc}{\contentsline {subsection}{2020}{4}{section*.14}\protected@file@percent }
\@writefile{toc}{\contentsline {subsection}{2019}{4}{section*.15}\protected@file@percent }
\@writefile{toc}{\contentsline {subsection}{2018}{4}{section*.16}\protected@file@percent }
\@writefile{toc}{\contentsline {section}{Seminarios}{4}{section*.17}\protected@file@percent }
\citation{*}
\bibstyle{plain}
\bibdata{publications}
\@writefile{toc}{\contentsline {section}{Otros}{5}{section*.18}\protected@file@percent }
\gdef \@abspage@last{5}
